{
  "title": "Stornorechnung ST-GS2021-12-JPLR",
  "description": "Stornorechnung für Rechnung GS2021-12-JPLR vom 31. Dec 2021",
  "components": [
    {
      "component": "image",
      "uuid": "82366cce-bcd5-4c82-bd67-aaa3b0a69828"
    },
    {
      "component": "address",
      "lines": [
        "Pflegehilfe für Senioren 24 GmbH",
        "Huttenstraße 31",
        "10553 Berlin",
        "USt-ID: DE313977393"
      ],
      "alignment": "right"
    },
    {
      "component": "address",
      "lines": [
        "Mrs Anonymous",
        "Anonymenstr. 123",
        "41773 Essen",
        "Steuernummer: 123/4567/8910"
      ]
    },
    {
      "component": "doc_info",
      "table": [
        ["Rechnungsnummer", "ST-GS2021-12-JPLR"],
        ["Rechnungsdatum", "Berlin, den 4. November 2022"],
        ["Leistungszeitraum", "Dezember 2021"]
      ]
    },
    { "component": "heading", "content": "Stornorechnung" },
    {
      "component": "block_text",
      "content": "Hiermit stornieren wir die Gutschrift GS2021-12-JPLR vom 31. Dec 2021."
    },
    {
      "component": "table",
      "column_headers": [
        { "content": "Leistung", "fill_width": true },
        { "content": "Anzahl", "data_type": "numeric" },
        { "content": "Preis in EUR", "data_type": "currency" },
        { "content": "Summe in EUR", "data_type": "currency" }
      ],
      "rows": [
        ["Storno Provision", "1", "-14192,50", "-14192,50"],
        ["Storno Reklamierte Leads", "3", "-60,00", "-180,00"]
      ]
    },
    {
      "component": "table",
      "table_type": "totals_table",
      "alignment": "right",
      "fill_width": false,
      "colour_alternate_rows": false,
      "show_column_header_content": false,
      "column_headers": [
        {},
        {
          "data_type": "currency"
        }
      ],
      "rows": [
        ["Summe Nettobeträge", "-14372,50"],
        ["Umsatzsteuer 19,00 %", "-2730,78"],
        ["Rechnungsbetrag", "-17103,28"]
      ]
    },
    {
      "component": "footer",
      "columns": [
        {
          "lines": [
            "Amtsgericht Charlottenburg (Berlin) HRB 190099B",
            "Sitz Berlin",
            "Geschäftsführer Norman Liersch, Thomas Hildebrandt"
          ]
        },
        {
          "justify_text": "middle",
          "lines": [
            "Pflegehilfe für Senioren 24 GmbH",
            "Huttenstraße 31 • 10553 Berlin",
            "USt-ID: DE313977393"
          ]
        },
        {
          "table": [
            ["IBAN:", "DE62 1004 0000 0656 2813 00"],
            ["BIC:", "COBADEFFXXX"],
            ["Bank:", "Commerzbank"]
          ]
        }
      ]
    }
  ]
}
