{
  "columns": [
    {
      "alignment": "right",
      "justify_text": "right",
      "lines": [
        "Right-justified line 1 in right-aligned column",
        "Right-justified line 2 in right-aligned column",
        "Right-justified line 3 in right-aligned column"
      ]
    }
  ]
}
