{
  "alignment": "left",
  "fill_width": false,
  "column_headers": [
    { "content": "Column name 1" },
    { "content": "Column name 2" }
  ],
  "rows": [
    ["Row 1 cell 1", "Row 1 cell 2"],
    ["Row 2 cell 1", "Row 2 cell 2"],
    ["Row 3 cell 1", "Row 3 cell 2"]
  ]
}
