{
  "component": "footer",
  "columns": [
    {
      "lines": ["Left line 1", "Left line 2", "Left line 3"]
    },
    {
      "lines": ["Centre line 1", "Centre line 2"]
    },
    {
      "table": [
        ["Table label 1", "Table info 1"],
        ["Table label 2", "Table info 2"],
        ["Table label 3", "Table info 3"]
      ]
    }
  ]
}
